module gitlab.com/capinside/copper-cli

go 1.18

require (
	github.com/sirupsen/logrus v1.9.0
	github.com/spf13/cobra v1.6.1
	github.com/spf13/viper v1.14.0
	github.com/stretchr/testify v1.8.1
	gitlab.com/capinside/protobuf-api v0.0.2-0.20221218121936-3ad6c9724d81
	google.golang.org/protobuf v1.28.1
)

require (
	github.com/davecgh/go-spew v1.1.1 // indirect
	github.com/fsnotify/fsnotify v1.6.0 // indirect
	github.com/golang/protobuf v1.5.2 // indirect
	github.com/grpc-ecosystem/grpc-gateway/v2 v2.14.0 // indirect
	github.com/hashicorp/hcl v1.0.0 // indirect
	github.com/inconshreveable/mousetrap v1.1.0 // indirect
	github.com/magiconair/properties v1.8.7 // indirect
	github.com/mitchellh/mapstructure v1.5.0 // indirect
	github.com/pelletier/go-toml v1.9.5 // indirect
	github.com/pelletier/go-toml/v2 v2.0.6 // indirect
	github.com/pmezard/go-difflib v1.0.0 // indirect
	github.com/spf13/afero v1.9.3 // indirect
	github.com/spf13/cast v1.5.0 // indirect
	github.com/spf13/jwalterweatherman v1.1.0 // indirect
	github.com/spf13/pflag v1.0.5 // indirect
	github.com/subosito/gotenv v1.4.1 // indirect
	golang.org/x/net v0.4.0 // indirect
	golang.org/x/sys v0.3.0 // indirect
	golang.org/x/text v0.5.0 // indirect
	google.golang.org/genproto v0.0.0-20221207170731-23e4bf6bdc37 // indirect
	google.golang.org/grpc v1.51.0 // indirect
	gopkg.in/check.v1 v1.0.0-20190902080502-41f04d3bba15 // indirect
	gopkg.in/ini.v1 v1.67.0 // indirect
	gopkg.in/yaml.v2 v2.4.0 // indirect
	gopkg.in/yaml.v3 v3.0.1 // indirect
)
